Companion package for the Mental Model Mapping Tool M-Tool. https://www.m-tool.org/ • MToolR
…
We have implemented some simple descriptive statistics in a convenience function already:

calculate_descriptive_statistics(mentalmodel = mentalmodels)
#> # A tibble: 901 x 6
#>    concept                          w_betweenness w_in_d~1 w_out~2 w_tot~3 user 
#>    <chr>                                    <dbl>    <dbl>   <dbl>   <dbl> <chr>
#>  1 Energy transition                            0        3       0       3 d20f~
#>  2 Climate compensation                         0        0       0       0 d20f~
#>  3 Wind farms                                   0        3       0       3 d20f~
#>  4 Hydropower                                   0        0       0       0 d20f~
#>  5 Nuclear power                                0        0       0       0 d20f~
#>  6 Carbon capture and storage                   0        0       1       1 d20f~
#>  7 Regulations                                  0        0       1       1 d20f~
#>  8 Energy saving                                0        0       0       0 d20f~
#>  9 Walking and cycling                          0        0       0       0 d20f~
#> 10 Energy efficient home appliances             0        0       1       1 d20f~
#> # ... with 891 more rows, and abbreviated variable names 1: w_in_degree,
#> #   2: w_out_degree, 3: w_total_degree
…
